<svg width="46" height="46" viewBox="0 0 46 46" fill="none" xmlns="http://www.w3.org/2000/svg">
<path d="M33.7895 43.0229C31.9789 43.9608 30.0311 44.6099 28.0437 45.0049C26.417 45.3176 24.7659 45.4831 23.1128 45.4752C22.8926 45.4805 22.673 45.4607 22.4534 45.4528C22.2338 45.4409 22.0136 45.4363 21.794 45.4191L21.1373 45.3591L20.8082 45.3288L20.4818 45.2846L19.8277 45.1969C19.6101 45.1626 19.3945 45.1197 19.1776 45.0821C18.7424 45.0148 18.3158 44.9086 17.8845 44.8163C17.8225 44.8031 17.7579 44.7886 17.69 44.7741C17.6234 44.7556 17.5542 44.7365 17.4816 44.7174C17.3372 44.6771 17.1816 44.6343 17.0168 44.5888C16.6831 44.505 16.3211 44.3751 15.9209 44.2431C15.822 44.2088 15.7191 44.1778 15.6162 44.1389C15.514 44.0994 15.4105 44.0585 15.3044 44.0169C15.0927 43.9338 14.8731 43.8474 14.6463 43.7584C14.2058 43.5532 13.7258 43.3593 13.2504 43.1008C11.3124 42.1418 9.22878 40.6228 7.46097 38.7899C5.70833 36.9424 4.2834 34.7936 3.41037 32.8149C3.17365 32.3281 3.00089 31.84 2.81561 31.3902C2.73648 31.16 2.65999 30.9371 2.58614 30.7221C2.54987 30.6139 2.51361 30.5084 2.478 30.4048C2.44371 30.3006 2.41734 30.1964 2.38767 30.0955C2.27293 29.6905 2.15952 29.3225 2.09028 28.9854C2.05204 28.8186 2.01643 28.6609 1.98346 28.5152C1.96632 28.4419 1.95049 28.372 1.93533 28.3041C1.92346 28.2362 1.91225 28.1702 1.9017 28.1082C1.60036 26.4817 1.4454 24.8302 1.46453 23.1766C1.50277 21.4156 1.75663 19.6645 2.16084 17.9483C2.64285 15.9788 3.3774 14.0614 4.39351 12.2932C5.38918 10.5123 6.6763 8.89772 8.14278 7.46976C9.63364 6.06752 11.3032 4.85194 13.1257 3.93647C14.9364 2.99857 16.8836 2.34955 18.8716 1.95382C20.4977 1.64184 22.1488 1.47629 23.8018 1.48421C24.0221 1.47893 24.2417 1.49806 24.4619 1.50597C24.6815 1.51784 24.9017 1.52312 25.1206 1.53961L25.778 1.60029L26.1064 1.62997L26.4334 1.67482L27.0876 1.76254C27.3045 1.79684 27.5201 1.83971 27.7371 1.87665C28.1722 1.94458 28.5995 2.05077 29.0301 2.14245C29.0921 2.1563 29.1567 2.17081 29.2246 2.18532C29.2912 2.20379 29.3611 2.22226 29.433 2.24205C29.5774 2.28162 29.733 2.32449 29.8985 2.37066C30.2315 2.45443 30.5942 2.58436 30.9938 2.71561C31.0933 2.74991 31.1962 2.78157 31.2984 2.82048C31.4006 2.86006 31.5048 2.90095 31.6109 2.9425C31.8226 3.02561 32.0422 3.11201 32.2683 3.20105C32.7095 3.40552 33.1895 3.60009 33.6643 3.85798C35.6029 4.81765 37.6859 6.33663 39.4543 8.16956C41.2063 10.017 42.6312 12.1659 43.5043 14.1446C43.741 14.6313 43.9137 15.1187 44.099 15.5692C44.1782 15.7987 44.2546 16.0223 44.3285 16.2374C44.3654 16.3449 44.4017 16.4511 44.4366 16.5546C44.4709 16.6588 44.4973 16.763 44.5276 16.8639C44.6417 17.2689 44.7551 17.637 44.8244 17.9733C44.8626 18.1409 44.8982 18.2978 44.9318 18.4443C44.9483 18.5168 44.9641 18.5874 44.9793 18.6553C44.9912 18.7233 45.0024 18.7886 45.0136 18.8512C45.3149 20.4777 45.4692 22.1292 45.4501 23.7828C45.4125 25.5438 45.158 27.295 44.7538 29.0112C44.2718 30.9806 43.5372 32.898 42.5211 34.6663C41.5261 36.4464 40.2383 38.0617 38.7725 39.4897C37.2816 40.8919 35.6121 42.1068 33.7895 43.0229ZM39.1352 39.8471L39.1365 39.8458C40.6333 38.3875 41.9494 36.7386 42.9688 34.9195C44.0094 33.1136 44.7604 31.1528 45.2477 29.1398L45.4593 28.1926C45.4593 28.1926 45.5095 27.9301 45.5833 27.5364C45.669 27.1446 45.7277 26.613 45.8055 26.0847C45.8504 25.5524 45.9143 25.0221 45.9209 24.6217C45.9387 24.2214 45.9499 23.9549 45.9499 23.9549C45.9499 23.9549 45.9519 23.8883 45.9526 23.7716C45.9526 23.6548 45.9539 23.488 45.9545 23.2881C45.9671 22.8871 45.9348 22.3548 45.9137 21.8212C45.8945 21.5554 45.8668 21.2896 45.8457 21.0403C45.8339 20.9156 45.8233 20.7956 45.8128 20.6815C45.7969 20.5681 45.7818 20.4605 45.7679 20.361C45.7132 19.9646 45.6763 19.7001 45.6763 19.7001C45.6763 19.7001 45.671 19.64 45.6539 19.5503C45.638 19.4613 45.6176 19.3419 45.5965 19.2225C45.5549 18.9838 45.5127 18.745 45.5127 18.745C45.5022 18.681 45.4903 18.6144 45.4785 18.5445C45.4633 18.4753 45.4475 18.4034 45.4303 18.3282C45.3967 18.1785 45.3604 18.0175 45.3215 17.8467C45.2516 17.5017 45.1362 17.1251 45.0195 16.7103C44.9892 16.6074 44.9615 16.5005 44.9272 16.3937C44.8909 16.2875 44.854 16.1793 44.8171 16.0692C44.7413 15.8482 44.6635 15.62 44.583 15.3839C44.3938 14.9235 44.2171 14.4242 43.9751 13.9262C43.0829 11.8994 41.625 9.69843 39.8308 7.80811C38.0228 5.93231 35.8884 4.37838 33.9036 3.3976C33.417 3.13378 32.9258 2.93459 32.4741 2.72617C32.242 2.63515 32.0178 2.54676 31.8002 2.46168C31.692 2.41947 31.5852 2.37792 31.481 2.33702C31.3762 2.29811 31.2707 2.26579 31.1685 2.23083C30.7597 2.09628 30.3884 1.96437 30.0475 1.87928C29.8781 1.83246 29.7192 1.78958 29.5708 1.74869C29.497 1.7289 29.4257 1.70978 29.3572 1.69131C29.2879 1.67614 29.2213 1.66163 29.158 1.64844C29.158 1.64844 28.922 1.59567 28.6852 1.54357C28.5666 1.51784 28.4485 1.49146 28.3602 1.47167C28.2718 1.45057 28.2118 1.44331 28.2118 1.44331C28.2118 1.44331 27.9494 1.3945 27.5557 1.32195C27.4568 1.30414 27.3507 1.28436 27.2379 1.26325C27.1245 1.24808 27.0045 1.23159 26.8805 1.2151C26.6326 1.18212 26.3688 1.14255 26.1038 1.11221C25.5716 1.06802 25.0415 1.01196 24.6406 1.00668C24.4408 0.998765 24.274 0.99217 24.1573 0.987553C24.0412 0.982936 23.9739 0.982276 23.9739 0.982276C23.9739 0.982276 23.7076 0.981617 23.3073 0.981617C22.9071 0.970404 22.3743 1.0113 21.8408 1.0324C21.31 1.08715 20.7766 1.1221 20.381 1.19004C19.9847 1.24742 19.7203 1.28502 19.7203 1.28502L18.7655 1.45518C16.7326 1.8529 14.7412 2.51774 12.8917 3.47741C11.0302 4.41597 9.32571 5.65859 7.80253 7.09051L7.80121 7.09117L7.79066 7.10172L7.77945 7.11227L7.7788 7.11359C6.28199 8.57189 4.9652 10.2208 3.94579 12.0392C2.90594 13.8458 2.15424 15.806 1.66762 17.8197L1.4553 18.7668C1.4553 18.7668 1.40584 19.0293 1.33133 19.4231C1.24627 19.8148 1.18758 20.3464 1.10978 20.8748C1.06494 21.407 1.00032 21.9373 0.993726 22.3377C0.976582 22.7374 0.964713 23.0045 0.964713 23.0045C0.964713 23.0045 0.962735 23.0711 0.962735 23.1879C0.962075 23.3046 0.960757 23.4708 0.960097 23.6713C0.947569 24.0717 0.980538 24.6046 1.00164 25.1382C1.0201 25.404 1.0478 25.6691 1.06956 25.9185C1.08076 26.0431 1.09197 26.1638 1.10252 26.2779C1.11835 26.3914 1.13286 26.4989 1.1467 26.5978C1.20209 26.9949 1.23902 27.2587 1.23902 27.2587C1.23902 27.2587 1.24363 27.3194 1.26078 27.4084C1.2766 27.4981 1.2977 27.6175 1.31814 27.7369C1.36034 27.9756 1.40189 28.2144 1.40189 28.2144C1.41309 28.2777 1.4243 28.345 1.43617 28.4149C1.45134 28.4842 1.46782 28.5561 1.48431 28.6312C1.51794 28.781 1.55486 28.9412 1.59311 29.1127C1.66366 29.457 1.77905 29.8343 1.8951 30.2492C1.92544 30.352 1.95313 30.4589 1.98808 30.5657C2.02368 30.6719 2.06061 30.7801 2.0982 30.8903C2.17337 31.1105 2.25183 31.3394 2.33228 31.5749C2.52086 32.0359 2.69824 32.5352 2.93957 33.0332C3.83238 35.0594 5.29028 37.261 7.0838 39.1513C8.8925 41.0264 11.0269 42.5804 13.0117 43.5618C13.4983 43.825 13.9895 44.0242 14.4412 44.2333C14.6727 44.3243 14.8975 44.4127 15.1145 44.4971C15.2232 44.5399 15.3294 44.5815 15.4343 44.6217C15.5391 44.6613 15.6446 44.6936 15.7461 44.7286C16.1556 44.8631 16.5269 44.995 16.8678 45.0801C17.0372 45.1263 17.1961 45.1698 17.3438 45.2101C17.4177 45.2305 17.4896 45.2496 17.5575 45.2681C17.6274 45.2826 17.6933 45.2971 17.7566 45.311C17.7566 45.311 17.9933 45.3631 18.23 45.4159C18.3481 45.4416 18.4661 45.468 18.5551 45.4871C18.6428 45.5082 18.7035 45.5161 18.7035 45.5161C18.7035 45.5161 18.9659 45.5643 19.3596 45.6368C19.4578 45.6553 19.5646 45.6751 19.6767 45.6955C19.7908 45.7113 19.9102 45.7278 20.0341 45.7443C20.2827 45.7766 20.5465 45.8162 20.8115 45.8472C21.343 45.8914 21.8738 45.9475 22.2741 45.9527C22.4738 45.9607 22.6407 45.9672 22.7574 45.9719C22.8741 45.9765 22.9407 45.9771 22.9407 45.9771C22.9407 45.9771 23.2077 45.9771 23.6073 45.9778C24.0082 45.989 24.5404 45.9481 25.0738 45.9264C25.6053 45.8723 26.1387 45.8373 26.5337 45.7694C26.9306 45.712 27.1944 45.6737 27.1944 45.6737L28.1498 45.5042C30.1821 45.1065 32.1734 44.4417 34.023 43.482C35.8844 42.5434 37.5896 41.3002 39.1121 39.8689L39.1134 39.8682L39.1246 39.8577L39.1352 39.8471Z" fill="#023047"/>
<path d="M19.7615 13.028C18.4045 14.328 18.202 16.624 18.0293 18.2993C17.8123 20.6242 18.0003 23.4979 18.0866 25.7213C17.5525 24.4075 16.903 22.4288 16.3979 21.1294C15.6469 19.2523 14.911 17.3172 13.9002 15.5693C13.1208 14.2555 12.2399 13.1725 10.594 13.1725C9.04911 13.1725 7.66374 14.111 7.01359 15.5264C6.21969 17.2881 6.40761 19.4832 7.4468 21.1004C7.50483 21.1868 7.62022 21.2158 7.75012 21.2158C8.16883 21.2158 8.80382 20.9124 8.70293 20.768C7.82199 19.3823 7.54769 17.6344 7.99541 16.0607C8.28422 15.0931 8.83283 13.8076 10.0309 13.8076C11.3734 13.8076 12.139 15.0641 12.6876 16.0172C13.6259 17.6344 14.3189 19.4106 15.0119 21.1585C16.0511 23.7578 17.0619 26.371 18.231 28.8985C18.2746 28.9994 18.4045 29.0284 18.5634 29.0284C18.9531 29.0284 19.5017 28.8121 19.4872 28.566C19.2274 25.3751 19.0111 22.1689 19.1984 18.9489C19.3573 16.8113 19.5597 14.8042 20.5409 13.4178C20.7288 13.1289 20.9451 12.9416 21.2049 12.7972C21.5662 12.5802 21.9704 12.5947 22.3456 12.3783C22.5625 12.2484 22.2592 12.1475 22.0858 12.1475C21.2339 12.1475 20.3965 12.4357 19.7615 13.028ZM11.0991 15.541C11.0853 15.382 10.9264 15.324 10.7239 15.324C10.3342 15.324 9.81465 15.5555 9.84367 15.8727C9.98807 17.1727 10.0019 18.5156 9.98807 19.8294C9.95906 23.2664 9.67025 27.0359 8.42863 30.2849C8.32774 30.5157 8.71744 30.5738 8.9047 30.5738C8.93371 30.5738 8.94822 30.5738 8.96273 30.5738C9.25154 30.5302 9.58387 30.4148 9.67025 30.1259C10.5367 27.9454 10.8974 25.5914 11.0853 23.2809C11.258 21.2739 11.3016 19.2523 11.2152 17.2591C11.2007 16.6813 11.1717 16.1042 11.0991 15.541Z" fill="#023047"/>
<path d="M38.2858 28.8695C38.2423 28.7105 38.0689 28.6676 37.9107 28.6676C37.7946 28.6676 37.6937 28.6821 37.6073 28.696C37.5783 28.696 37.5638 28.696 37.5348 28.696C36.6255 28.696 36.64 26.8479 36.582 26.0102C36.4666 23.9306 36.6835 21.8227 36.7989 19.7431C36.8708 18.1113 37.4629 13.5332 35.254 12.9706C35.0516 12.9126 34.8353 12.8981 34.6335 12.8981C33.7671 12.8981 32.8578 13.2879 32.2947 13.8512C31.024 15.0931 30.5763 18.0104 30.3745 20.2628C30.1576 17.9523 29.638 15.3385 28.4399 14.1836C27.7179 13.4759 26.8231 13.158 25.8558 13.158C23.9357 13.158 22.3043 14.299 21.6113 16.1042C20.9618 17.7934 21.3225 19.6995 22.2898 21.173C22.3472 21.2739 22.4916 21.3313 22.6505 21.3313C23.0837 21.3313 23.6613 21.014 23.4444 20.6671C22.665 19.4832 22.3472 17.9814 22.6795 16.5804C23.0119 15.2376 23.9647 13.9092 25.4516 13.9092C26.1446 13.9092 26.7941 14.1981 27.2847 14.7033C29.3637 16.6959 29.5945 21.2739 29.5516 23.8297C29.5516 24.0606 29.7389 24.1621 29.9703 24.1621C30.3165 24.1621 30.7642 23.9451 30.8078 23.6853C31.1394 21.8655 31.3992 20.0029 31.7606 18.1687C32.0059 16.9412 32.2512 15.5838 32.9732 14.5153C33.3339 13.9237 33.7961 13.6922 34.3157 13.6922C34.3876 13.6922 34.4746 13.6922 34.561 13.7067C36.2068 13.9811 35.5573 19.0498 35.5138 20.1619C35.3984 22.227 35.2105 24.3066 35.3259 26.371C35.3839 27.5411 35.5573 29.3892 37.0877 29.4617C37.304 29.4617 37.5348 29.4182 37.7517 29.3753C37.9535 29.3463 38.3432 29.1438 38.2858 28.8695ZM25.8848 15.541C25.8703 15.4684 25.7687 15.4394 25.6243 15.4394C25.2346 15.4394 24.5997 15.6419 24.6287 15.8727C24.7586 17.1872 24.7731 18.5301 24.7731 19.844C24.7441 23.2236 24.4407 27.1368 23.1991 30.3139C23.1556 30.4293 23.3145 30.4583 23.4734 30.4583C23.5743 30.4583 23.6904 30.4438 23.7187 30.4438C23.9066 30.4148 24.3689 30.3139 24.4407 30.0969C25.2927 27.9309 25.6679 25.5769 25.8703 23.281C26.043 21.2739 26.0866 19.2523 26.0002 17.2591C25.9712 16.6814 25.9567 16.1042 25.8848 15.541Z" fill="#023047"/>
<path d="M34.6217 26.8273C33.9926 26.8273 33.4823 27.3378 33.4823 27.9671C33.4823 28.5969 33.9926 29.1068 34.6217 29.1068C35.2514 29.1068 35.7611 28.5969 35.7611 27.9671C35.7611 27.3378 35.2514 26.8273 34.6217 26.8273Z" fill="#023047"/>
</svg>
